Exercicis resolts - Sessions 2 i 3
…
Ara totes les dades una altra vegada:

En quina comarca hi ha hagut ms casos en aquest ltim ms? (podeu fer servir la funci arrange)

covid %>%
  group_by(comarcadescripcio) %>%
  summarise(across(numcasos, sum)) %>%
  arrange(-numcasos)

## # A tibble: 43 x 2
##    comarcadescripcio numcasos
##    <fct>                <dbl>
##  1 BARCELONES           10871
##  2 VALLES OCCIDENTAL     4427
##  3 BAIX LLOBREGAT        3408
##  4 VALLES ORIENTAL       2190
##  5 MARESME               2185
##  6 OSONA                 1797
##  7 SEGRIA                1313
##  8 GIRONES               1007
##  9 <NA>                   985
## 10 BAGES                  979
## # ... with 33 more rows
…
