Errors!
…
Object Female not found; les cometes!!

dones <- liver %>% 
  filter(Gender == "Female")

Ara s!

Ara volem seleccionar les variables Age, Gender i Total_bilirubin:

liver %>%
  select(Age, Gender, Total_Bilirubin)

## # A tibble: 583 x 3
##      Age Gender Total_Bilirubin
##    <dbl> <chr>            <dbl>
##  1    65 Female             0.7
##  2    62 Male              10.9
##  3    62 Male               7.3
##  4    58 Male               1  
##  5    72 Male               3.9
##  6    46 Male               1.8
##  7    26 Female             0.9
##  8    29 Female             0.9
##  9    17 Male               0.9
## 10    55 Male               0.7
## # ... with 573 more rows
…
liver %>%
  select(is.numeric)

## Warning: Predicate functions must be wrapped in `where()`.
## 
##   # Bad
##   data %>% select(is.numeric)
## 
##   # Good
##   data %>% select(where(is.numeric))
## 
## i Please update your code.
## This message is displayed once per session.

## # A tibble: 583 x 10
##      Age Total_Bilirubin Direct_Bilirubin Alkaline_Phosphot~ Alamine_Aminotrans~
##    <dbl>           <dbl>            <dbl>              <dbl>               <dbl>
##  1    65             0.7              0.1                187                  16
##  2    62            10.9              5.5                699                  64
##  3    62             7.3              4.1                490                  60
##  4    58             1                0.4                182                  14
##  5    72             3.9              2                  195                  27
##  6    46             1.8              0.7                208                  19
##  7    26             0.9              0.2                154                  16
##  8    29             0.9              0.3                202                  14
##  9    17             0.9              0.3                202                  22
## 10    55             0.7              0.2                290                  53
## # ... with 573 more rows, and 5 more variables:
## #   Aspartate_Aminotransferase <dbl>, Total_Protiens <dbl>, Albumin <dbl>,
## #   Albumin_and_Globulin_Ratio <dbl>, Malatia <dbl>

Val, aix sembla que potser ha funcionat, per ens dna un Warning interessant. Aix passa a vegades, la funci ens est dient que, tot i que va b, haurem de posar un filter. Intenteu fer aquests canvis perqu en un futur s possible que canvin la funci i en lloc de donar un warning, doni un error.

Hem de fer:

liver %>%
  select(where(is.numeric))

## # A tibble: 583 x 10
##      Age Total_Bilirubin Direct_Bilirubin Alkaline_Phosphot~ Alamine_Aminotrans~
##    <dbl>           <dbl>            <dbl>              <dbl>               <dbl>
##  1    65             0.7              0.1                187                  16
##  2    62            10.9              5.5                699                  64
##  3    62             7.3              4.1                490                  60
##  4    58             1                0.4                182                  14
##  5    72             3.9              2                  195                  27
##  6    46             1.8              0.7                208                  19
##  7    26             0.9              0.2                154                  16
##  8    29             0.9              0.3                202                  14
##  9    17             0.9              0.3                202                  22
## 10    55             0.7              0.2                290                  53
## # ... with 573 more rows, and 5 more variables:
## #   Aspartate_Aminotransferase <dbl>, Total_Protiens <dbl>, Albumin <dbl>,
## #   Albumin_and_Globulin_Ratio <dbl>, Malatia <dbl>
…
Dos iguals, no un!

liver %>%
  filter(Gender == Female)

## Error: Problem with `filter()` input `..1`.
## x object 'Female' not found
## i Input `..1` is `Gender == Female`.

Falten les cometes!

liver %>%
  filter(Gender == "Female")

## # A tibble: 142 x 11
##      Age Gender Total_Bilirubin Direct_Bilirubin Alkaline_Phosphotase
##    <dbl> <chr>            <dbl>            <dbl>                <dbl>
##  1    65 Female             0.7              0.1                  187
##  2    26 Female             0.9              0.2                  154
##  3    29 Female             0.9              0.3                  202
##  4    74 Female             1.1              0.4                  214
##  5    40 Female             0.9              0.3                  293
##  6    40 Female             0.9              0.3                  293
##  7    84 Female             0.7              0.2                  188
##  8    38 Female             2.6              1.2                  410
##  9    38 Female             2.6              1.2                  410
## 10    17 Female             0.7              0.2                  145
## # ... with 132 more rows, and 6 more variables: Alamine_Aminotransferase <dbl>,
## #   Aspartate_Aminotransferase <dbl>, Total_Protiens <dbl>, Albumin <dbl>,
## #   Albumin_and_Globulin_Ratio <dbl>, Malatia <dbl>
Ara s.

liver %>%
  filter(c(Gender == "Female", Albumin > 3))

## Error: Problem with `filter()` input `..1`.
## x Input `..1` must be of size 583 or 1, not size 1166.
## i Input `..1` is `c(Gender == "Female", Albumin > 3)`.

Si tenim dues condicions, en aquest cas no hem de posar un vector, simplement anar-lies llistat:

liver %>%
  filter(Gender == "Female", Albumin > 3)

## # A tibble: 88 x 11
##      Age Gender Total_Bilirubin Direct_Bilirubin Alkaline_Phosphotase
##    <dbl> <chr>            <dbl>            <dbl>                <dbl>
##  1    65 Female             0.7              0.1                  187
##  2    26 Female             0.9              0.2                  154
##  3    29 Female             0.9              0.3                  202
##  4    74 Female             1.1              0.4                  214
##  5    40 Female             0.9              0.3                  293
##  6    40 Female             0.9              0.3                  293
##  7    84 Female             0.7              0.2                  188
##  8    17 Female             0.7              0.2                  145
##  9    85 Female             1                0.3                  208
## 10    34 Female             0.6              0.1                  161
## # ... with 78 more rows, and 6 more variables: Alamine_Aminotransferase <dbl>,
## #   Aspartate_Aminotransferase <dbl>, Total_Protiens <dbl>, Albumin <dbl>,
## #   Albumin_and_Globulin_Ratio <dbl>, Malatia <dbl>
